{
  "project_info": {
    "project_number": "175874420533",
    "firebase_url": "https://mobilepilot-164f6.firebaseio.com",
    "project_id": "mobilepilot-164f6",
    "storage_bucket": "mobilepilot-164f6.appspot.com"
  },
  "client": [
    {
      "client_info": {
        "mobilesdk_app_id": "1:175874420533:android:1dcdde753f1c646ca7667c",
        "android_client_info": {
          "package_name": "com.shipapppilot.shipapp"
        }
      },
      "oauth_client": [
        {
          "client_id": "175874420533-15f4lg979if93hbudcs3cltqu7tltfft.apps.googleusercontent.com",
          "client_type": 1,
          "android_info": {
            "package_name": "com.example.mobilepilot",
            "certificate_hash": "11c57654721ae9c1bdcb59923ccf7ad66caf6572"
          }
        },
        {
          "client_id": "175874420533-emh3enrb7059mdtn7d9lkglhlnurj52s.apps.googleusercontent.com",
          "client_type": 1,
          "android_info": {
            "package_name": "com.example.mobilepilot",
            "certificate_hash": "d0b35d4fd6e5ce83850452cb94d2c0c317fc235b"
          }
        },
        {
          "client_id": "175874420533-jptt8prdtp8tginork8a7qf36idec97s.apps.googleusercontent.com",
          "client_type": 3
        }
      ],
      "api_key": [
        {
          "current_key": "AIzaSyCeCfxVLObdC4JSraRxK2tDZ7TCPKa6kfk"
        }
      ],
      "services": {
        "appinvite_service": {
          "other_platform_oauth_client": [
            {
              "client_id": "175874420533-jptt8prdtp8tginork8a7qf36idec97s.apps.googleusercontent.com",
              "client_type": 3
            }
          ]
        }
      }
    },
    {
      "client_info": {
        "mobilesdk_app_id": "1:175874420533:android:50a0a1697619d7b1a7667c",
        "android_client_info": {
          "package_name": "com.example.myapplication"
        }
      },
      "oauth_client": [
        {
          "client_id": "175874420533-r8fcecurcvbv15ah17g6va0luicqvfg0.apps.googleusercontent.com",
          "client_type": 1,
          "android_info": {
            "package_name": "com.example.myapplication",
            "certificate_hash": "f9efb2c3e93374eb002ba014ffa9f70fd830ad41"
          }
        },
        {
          "client_id": "175874420533-jptt8prdtp8tginork8a7qf36idec97s.apps.googleusercontent.com",
          "client_type": 3
        }
      ],
      "api_key": [
        {
          "current_key": "AIzaSyCeCfxVLObdC4JSraRxK2tDZ7TCPKa6kfk"
        }
      ],
      "services": {
        "appinvite_service": {
          "other_platform_oauth_client": [
            {
              "client_id": "175874420533-jptt8prdtp8tginork8a7qf36idec97s.apps.googleusercontent.com",
              "client_type": 3
            }
          ]
        }
      }
    },
    {
      "client_info": {
        "mobilesdk_app_id": "1:175874420533:android:1b509a1965eda45aa7667c",
        "android_client_info": {
          "package_name": "com.example.shipapp"
        }
      },
      "oauth_client": [
        {
          "client_id": "175874420533-stbkmje0pkhd7dskuonomcqcc2r5ggkk.apps.googleusercontent.com",
          "client_type": 1,
          "android_info": {
            "package_name": "com.example.shipapp",
            "certificate_hash": "f9efb2c3e93374eb002ba014ffa9f70fd830ad41"
          }
        },
        {
          "client_id": "175874420533-rsr9d3emg7ued3jenj87mfp60inttiuf.apps.googleusercontent.com",
          "client_type": 1,
          "android_info": {
            "package_name": "com.example.shipapp",
            "certificate_hash": "11c57654721ae9c1bdcb59923ccf7ad66caf6572"
          }
        },
        {
          "client_id": "175874420533-hrb38c2aakqvflb8hdvu0cgbnelib3la.apps.googleusercontent.com",
          "client_type": 1,
          "android_info": {
            "package_name": "com.example.shipapp",
            "certificate_hash": "d0b35d4fd6e5ce83850452cb94d2c0c317fc235b"
          }
        },
        {
          "client_id": "175874420533-jptt8prdtp8tginork8a7qf36idec97s.apps.googleusercontent.com",
          "client_type": 3
        }
      ],
      "api_key": [
        {
          "current_key": "AIzaSyCeCfxVLObdC4JSraRxK2tDZ7TCPKa6kfk"
        }
      ],
      "services": {
        "appinvite_service": {
          "other_platform_oauth_client": [
            {
              "client_id": "175874420533-jptt8prdtp8tginork8a7qf36idec97s.apps.googleusercontent.com",
              "client_type": 3
            }
          ]
        }
      }
    },
    {
      "client_info": {
        "mobilesdk_app_id": "1:175874420533:android:de41342084797142a7667c",
        "android_client_info": {
          "package_name": "com.example.treningfirebase"
        }
      },
      "oauth_client": [
        {
          "client_id": "175874420533-lma1p8sccq2pon2otusn5b3favgaq72l.apps.googleusercontent.com",
          "client_type": 1,
          "android_info": {
            "package_name": "com.example.treningfirebase",
            "certificate_hash": "17508f38e7949216db603538c4e4e6b04a4b0208"
          }
        },
        {
          "client_id": "175874420533-jptt8prdtp8tginork8a7qf36idec97s.apps.googleusercontent.com",
          "client_type": 3
        }
      ],
      "api_key": [
        {
          "current_key": "AIzaSyCeCfxVLObdC4JSraRxK2tDZ7TCPKa6kfk"
        }
      ],
      "services": {
        "appinvite_service": {
          "other_platform_oauth_client": [
            {
              "client_id": "175874420533-jptt8prdtp8tginork8a7qf36idec97s.apps.googleusercontent.com",
              "client_type": 3
            }
          ]
        }
      }
    }
  ],
  "configuration_version": "1"
}